{
    "cities": [
        {
            "id":1,
            "city": "London",
            "country": "uk"
        },
        {
            "id":2,
            "city": "Berlin",
            "country": "Germany"
        },
        {
            "id":3,
            "city": "Rome",
            "country": "Italy"
        },
        {
            "id":4,
            "city": "Paris",
            "country": "France"
        },
        {
            "id":5,
            "city": "Budapest",
            "country": "Hungary"
        }
    ]
}